ISO-10303-21;
HEADER;
/* Generated by software containing ST-Developer
 * from STEP Tools, Inc. (www.steptools.com) 
 */
/* OPTION: strings as raw bytes, not using required /X/ escapes */

FILE_DESCRIPTION(
/* description */ ('Unknown'),
/* implementation_level */ '2;1');

FILE_NAME(
/* name */ 'Allen screw',
/* time_stamp */ '2023-02-01T10:09:45-03:00',
/* author */ ('Unknown'),
/* organization */ ('Unknown'),
/* preprocessor_version */ 'ST-DEVELOPER v16.7',
/* originating_system */ 'Solid Edge',
/* authorisation */ 'Unknown');

FILE_SCHEMA (('AUTOMOTIVE_DESIGN {1 0 10303 214 3 1 1}'));
ENDSEC;

DATA;
#10=PROPERTY_DEFINITION_REPRESENTATION(#14,#12);
#11=PROPERTY_DEFINITION_REPRESENTATION(#15,#13);
#12=REPRESENTATION('',(#16),#436);
#13=REPRESENTATION('',(#17),#436);
#14=PROPERTY_DEFINITION('pmi validation property','',#441);
#15=PROPERTY_DEFINITION('pmi validation property','',#441);
#16=VALUE_REPRESENTATION_ITEM('number of annotations',COUNT_MEASURE(0.));
#17=VALUE_REPRESENTATION_ITEM('number of views',COUNT_MEASURE(0.));
#18=SHAPE_REPRESENTATION_RELATIONSHIP('','',#305,#19);
#19=ADVANCED_BREP_SHAPE_REPRESENTATION('',(#303),#436);
#20=LINE('',#398,#38);
#21=LINE('',#401,#39);
#22=LINE('',#403,#40);
#23=LINE('',#405,#41);
#24=LINE('',#407,#42);
#25=LINE('',#409,#43);
#26=LINE('',#411,#44);
#27=LINE('',#413,#45);
#28=LINE('',#415,#46);
#29=LINE('',#417,#47);
#30=LINE('',#419,#48);
#31=LINE('',#421,#49);
#32=LINE('',#423,#50);
#33=LINE('',#425,#51);
#34=LINE('',#427,#52);
#35=LINE('',#429,#53);
#36=LINE('',#431,#54);
#37=LINE('',#433,#55);
#38=VECTOR('',#349,1000.);
#39=VECTOR('',#350,1000.);
#40=VECTOR('',#351,1000.);
#41=VECTOR('',#352,1000.);
#42=VECTOR('',#353,1000.);
#43=VECTOR('',#354,1000.);
#44=VECTOR('',#357,1000.);
#45=VECTOR('',#358,1000.);
#46=VECTOR('',#359,1000.);
#47=VECTOR('',#362,1000.);
#48=VECTOR('',#363,1000.);
#49=VECTOR('',#366,1000.);
#50=VECTOR('',#367,1000.);
#51=VECTOR('',#370,1000.);
#52=VECTOR('',#371,1000.);
#53=VECTOR('',#374,1000.);
#54=VECTOR('',#375,1000.);
#55=VECTOR('',#378,1000.);
#56=CONICAL_SURFACE('',#313,1.5,0.785398163397449);
#57=PLANE('',#310);
#58=PLANE('',#317);
#59=PLANE('',#318);
#60=PLANE('',#319);
#61=PLANE('',#320);
#62=PLANE('',#321);
#63=PLANE('',#322);
#64=PLANE('',#323);
#65=PLANE('',#324);
#66=ORIENTED_EDGE('',*,*,#112,.F.);
#67=ORIENTED_EDGE('',*,*,#113,.T.);
#68=ORIENTED_EDGE('',*,*,#112,.T.);
#69=ORIENTED_EDGE('',*,*,#113,.F.);
#70=ORIENTED_EDGE('',*,*,#114,.T.);
#71=ORIENTED_EDGE('',*,*,#115,.T.);
#72=ORIENTED_EDGE('',*,*,#114,.F.);
#73=ORIENTED_EDGE('',*,*,#116,.T.);
#74=ORIENTED_EDGE('',*,*,#115,.F.);
#75=ORIENTED_EDGE('',*,*,#117,.F.);
#76=ORIENTED_EDGE('',*,*,#118,.F.);
#77=ORIENTED_EDGE('',*,*,#119,.F.);
#78=ORIENTED_EDGE('',*,*,#120,.F.);
#79=ORIENTED_EDGE('',*,*,#121,.F.);
#80=ORIENTED_EDGE('',*,*,#122,.F.);
#81=ORIENTED_EDGE('',*,*,#116,.F.);
#82=ORIENTED_EDGE('',*,*,#117,.T.);
#83=ORIENTED_EDGE('',*,*,#123,.F.);
#84=ORIENTED_EDGE('',*,*,#124,.F.);
#85=ORIENTED_EDGE('',*,*,#125,.T.);
#86=ORIENTED_EDGE('',*,*,#122,.T.);
#87=ORIENTED_EDGE('',*,*,#126,.F.);
#88=ORIENTED_EDGE('',*,*,#127,.F.);
#89=ORIENTED_EDGE('',*,*,#123,.T.);
#90=ORIENTED_EDGE('',*,*,#121,.T.);
#91=ORIENTED_EDGE('',*,*,#128,.F.);
#92=ORIENTED_EDGE('',*,*,#129,.F.);
#93=ORIENTED_EDGE('',*,*,#126,.T.);
#94=ORIENTED_EDGE('',*,*,#120,.T.);
#95=ORIENTED_EDGE('',*,*,#130,.F.);
#96=ORIENTED_EDGE('',*,*,#131,.F.);
#97=ORIENTED_EDGE('',*,*,#128,.T.);
#98=ORIENTED_EDGE('',*,*,#119,.T.);
#99=ORIENTED_EDGE('',*,*,#132,.F.);
#100=ORIENTED_EDGE('',*,*,#133,.F.);
#101=ORIENTED_EDGE('',*,*,#130,.T.);
#102=ORIENTED_EDGE('',*,*,#118,.T.);
#103=ORIENTED_EDGE('',*,*,#125,.F.);
#104=ORIENTED_EDGE('',*,*,#134,.F.);
#105=ORIENTED_EDGE('',*,*,#132,.T.);
#106=ORIENTED_EDGE('',*,*,#124,.T.);
#107=ORIENTED_EDGE('',*,*,#127,.T.);
#108=ORIENTED_EDGE('',*,*,#129,.T.);
#109=ORIENTED_EDGE('',*,*,#131,.T.);
#110=ORIENTED_EDGE('',*,*,#133,.T.);
#111=ORIENTED_EDGE('',*,*,#134,.T.);
#112=EDGE_CURVE('',#135,#135,#152,.T.);
#113=EDGE_CURVE('',#136,#136,#153,.T.);
#114=EDGE_CURVE('',#137,#137,#154,.T.);
#115=EDGE_CURVE('',#138,#138,#155,.T.);
#116=EDGE_CURVE('',#139,#139,#156,.T.);
#117=EDGE_CURVE('',#140,#141,#20,.T.);
#118=EDGE_CURVE('',#142,#140,#21,.T.);
#119=EDGE_CURVE('',#143,#142,#22,.T.);
#120=EDGE_CURVE('',#144,#143,#23,.T.);
#121=EDGE_CURVE('',#145,#144,#24,.T.);
#122=EDGE_CURVE('',#141,#145,#25,.T.);
#123=EDGE_CURVE('',#146,#141,#26,.T.);
#124=EDGE_CURVE('',#147,#146,#27,.T.);
#125=EDGE_CURVE('',#147,#140,#28,.T.);
#126=EDGE_CURVE('',#148,#145,#29,.T.);
#127=EDGE_CURVE('',#146,#148,#30,.T.);
#128=EDGE_CURVE('',#149,#144,#31,.T.);
#129=EDGE_CURVE('',#148,#149,#32,.T.);
#130=EDGE_CURVE('',#150,#143,#33,.T.);
#131=EDGE_CURVE('',#149,#150,#34,.T.);
#132=EDGE_CURVE('',#151,#142,#35,.T.);
#133=EDGE_CURVE('',#150,#151,#36,.T.);
#134=EDGE_CURVE('',#151,#147,#37,.T.);
#135=VERTEX_POINT('',#384);
#136=VERTEX_POINT('',#386);
#137=VERTEX_POINT('',#390);
#138=VERTEX_POINT('',#393);
#139=VERTEX_POINT('',#396);
#140=VERTEX_POINT('',#399);
#141=VERTEX_POINT('',#400);
#142=VERTEX_POINT('',#402);
#143=VERTEX_POINT('',#404);
#144=VERTEX_POINT('',#406);
#145=VERTEX_POINT('',#408);
#146=VERTEX_POINT('',#412);
#147=VERTEX_POINT('',#414);
#148=VERTEX_POINT('',#418);
#149=VERTEX_POINT('',#422);
#150=VERTEX_POINT('',#426);
#151=VERTEX_POINT('',#430);
#152=CIRCLE('',#308,1.5);
#153=CIRCLE('',#309,1.5);
#154=CIRCLE('',#312,1.5);
#155=CIRCLE('',#314,3.);
#156=CIRCLE('',#316,3.);
#157=EDGE_LOOP('',(#66));
#158=EDGE_LOOP('',(#67));
#159=EDGE_LOOP('',(#68));
#160=EDGE_LOOP('',(#69));
#161=EDGE_LOOP('',(#70));
#162=EDGE_LOOP('',(#71));
#163=EDGE_LOOP('',(#72));
#164=EDGE_LOOP('',(#73));
#165=EDGE_LOOP('',(#74));
#166=EDGE_LOOP('',(#75,#76,#77,#78,#79,#80));
#167=EDGE_LOOP('',(#81));
#168=EDGE_LOOP('',(#82,#83,#84,#85));
#169=EDGE_LOOP('',(#86,#87,#88,#89));
#170=EDGE_LOOP('',(#90,#91,#92,#93));
#171=EDGE_LOOP('',(#94,#95,#96,#97));
#172=EDGE_LOOP('',(#98,#99,#100,#101));
#173=EDGE_LOOP('',(#102,#103,#104,#105));
#174=EDGE_LOOP('',(#106,#107,#108,#109,#110,#111));
#175=FACE_BOUND('',#157,.T.);
#176=FACE_BOUND('',#158,.T.);
#177=FACE_BOUND('',#159,.T.);
#178=FACE_BOUND('',#160,.T.);
#179=FACE_BOUND('',#161,.T.);
#180=FACE_BOUND('',#162,.T.);
#181=FACE_BOUND('',#163,.T.);
#182=FACE_BOUND('',#164,.T.);
#183=FACE_BOUND('',#165,.T.);
#184=FACE_BOUND('',#166,.T.);
#185=FACE_BOUND('',#167,.T.);
#186=FACE_BOUND('',#168,.T.);
#187=FACE_BOUND('',#169,.T.);
#188=FACE_BOUND('',#170,.T.);
#189=FACE_BOUND('',#171,.T.);
#190=FACE_BOUND('',#172,.T.);
#191=FACE_BOUND('',#173,.T.);
#192=FACE_BOUND('',#174,.T.);
#193=CYLINDRICAL_SURFACE('',#307,1.5);
#194=CYLINDRICAL_SURFACE('',#311,1.5);
#195=CYLINDRICAL_SURFACE('',#315,3.);
#196=STYLED_ITEM('',(#209),#289);
#197=STYLED_ITEM('',(#210),#290);
#198=STYLED_ITEM('',(#211),#291);
#199=STYLED_ITEM('',(#212),#292);
#200=STYLED_ITEM('',(#213),#293);
#201=STYLED_ITEM('',(#214),#294);
#202=STYLED_ITEM('',(#215),#295);
#203=STYLED_ITEM('',(#216),#296);
#204=STYLED_ITEM('',(#217),#297);
#205=STYLED_ITEM('',(#218),#298);
#206=STYLED_ITEM('',(#219),#299);
#207=STYLED_ITEM('',(#220),#300);
#208=STYLED_ITEM('',(#221),#301);
#209=PRESENTATION_STYLE_ASSIGNMENT((#222));
#210=PRESENTATION_STYLE_ASSIGNMENT((#223));
#211=PRESENTATION_STYLE_ASSIGNMENT((#224));
#212=PRESENTATION_STYLE_ASSIGNMENT((#225));
#213=PRESENTATION_STYLE_ASSIGNMENT((#226));
#214=PRESENTATION_STYLE_ASSIGNMENT((#227));
#215=PRESENTATION_STYLE_ASSIGNMENT((#228));
#216=PRESENTATION_STYLE_ASSIGNMENT((#229));
#217=PRESENTATION_STYLE_ASSIGNMENT((#230));
#218=PRESENTATION_STYLE_ASSIGNMENT((#231));
#219=PRESENTATION_STYLE_ASSIGNMENT((#232));
#220=PRESENTATION_STYLE_ASSIGNMENT((#233));
#221=PRESENTATION_STYLE_ASSIGNMENT((#234));
#222=SURFACE_STYLE_USAGE(.BOTH.,#235);
#223=SURFACE_STYLE_USAGE(.BOTH.,#236);
#224=SURFACE_STYLE_USAGE(.BOTH.,#237);
#225=SURFACE_STYLE_USAGE(.BOTH.,#238);
#226=SURFACE_STYLE_USAGE(.BOTH.,#239);
#227=SURFACE_STYLE_USAGE(.BOTH.,#240);
#228=SURFACE_STYLE_USAGE(.BOTH.,#241);
#229=SURFACE_STYLE_USAGE(.BOTH.,#242);
#230=SURFACE_STYLE_USAGE(.BOTH.,#243);
#231=SURFACE_STYLE_USAGE(.BOTH.,#244);
#232=SURFACE_STYLE_USAGE(.BOTH.,#245);
#233=SURFACE_STYLE_USAGE(.BOTH.,#246);
#234=SURFACE_STYLE_USAGE(.BOTH.,#247);
#235=SURFACE_SIDE_STYLE('',(#248));
#236=SURFACE_SIDE_STYLE('',(#249));
#237=SURFACE_SIDE_STYLE('',(#250));
#238=SURFACE_SIDE_STYLE('',(#251));
#239=SURFACE_SIDE_STYLE('',(#252));
#240=SURFACE_SIDE_STYLE('',(#253));
#241=SURFACE_SIDE_STYLE('',(#254));
#242=SURFACE_SIDE_STYLE('',(#255));
#243=SURFACE_SIDE_STYLE('',(#256));
#244=SURFACE_SIDE_STYLE('',(#257));
#245=SURFACE_SIDE_STYLE('',(#258));
#246=SURFACE_SIDE_STYLE('',(#259));
#247=SURFACE_SIDE_STYLE('',(#260));
#248=SURFACE_STYLE_FILL_AREA(#261);
#249=SURFACE_STYLE_FILL_AREA(#262);
#250=SURFACE_STYLE_FILL_AREA(#263);
#251=SURFACE_STYLE_FILL_AREA(#264);
#252=SURFACE_STYLE_FILL_AREA(#265);
#253=SURFACE_STYLE_FILL_AREA(#266);
#254=SURFACE_STYLE_FILL_AREA(#267);
#255=SURFACE_STYLE_FILL_AREA(#268);
#256=SURFACE_STYLE_FILL_AREA(#269);
#257=SURFACE_STYLE_FILL_AREA(#270);
#258=SURFACE_STYLE_FILL_AREA(#271);
#259=SURFACE_STYLE_FILL_AREA(#272);
#260=SURFACE_STYLE_FILL_AREA(#273);
#261=FILL_AREA_STYLE('',(#274));
#262=FILL_AREA_STYLE('',(#275));
#263=FILL_AREA_STYLE('',(#276));
#264=FILL_AREA_STYLE('',(#277));
#265=FILL_AREA_STYLE('',(#278));
#266=FILL_AREA_STYLE('',(#279));
#267=FILL_AREA_STYLE('',(#280));
#268=FILL_AREA_STYLE('',(#281));
#269=FILL_AREA_STYLE('',(#282));
#270=FILL_AREA_STYLE('',(#283));
#271=FILL_AREA_STYLE('',(#284));
#272=FILL_AREA_STYLE('',(#285));
#273=FILL_AREA_STYLE('',(#286));
#274=FILL_AREA_STYLE_COLOUR('',#287);
#275=FILL_AREA_STYLE_COLOUR('',#288);
#276=FILL_AREA_STYLE_COLOUR('',#288);
#277=FILL_AREA_STYLE_COLOUR('',#288);
#278=FILL_AREA_STYLE_COLOUR('',#288);
#279=FILL_AREA_STYLE_COLOUR('',#288);
#280=FILL_AREA_STYLE_COLOUR('',#288);
#281=FILL_AREA_STYLE_COLOUR('',#288);
#282=FILL_AREA_STYLE_COLOUR('',#288);
#283=FILL_AREA_STYLE_COLOUR('',#288);
#284=FILL_AREA_STYLE_COLOUR('',#288);
#285=FILL_AREA_STYLE_COLOUR('',#288);
#286=FILL_AREA_STYLE_COLOUR('',#288);
#287=COLOUR_RGB('',0.1875,0.75,0.581249892711639);
#288=COLOUR_RGB('',0.506983280181885,0.531564235687256,0.550000011920929);
#289=ADVANCED_FACE('',(#175,#176),#193,.T.);
#290=ADVANCED_FACE('',(#177),#57,.T.);
#291=ADVANCED_FACE('',(#178,#179),#194,.T.);
#292=ADVANCED_FACE('',(#180,#181),#56,.T.);
#293=ADVANCED_FACE('',(#182,#183),#195,.T.);
#294=ADVANCED_FACE('',(#184,#185),#58,.T.);
#295=ADVANCED_FACE('',(#186),#59,.F.);
#296=ADVANCED_FACE('',(#187),#60,.F.);
#297=ADVANCED_FACE('',(#188),#61,.F.);
#298=ADVANCED_FACE('',(#189),#62,.F.);
#299=ADVANCED_FACE('',(#190),#63,.F.);
#300=ADVANCED_FACE('',(#191),#64,.F.);
#301=ADVANCED_FACE('',(#192),#65,.T.);
#302=CLOSED_SHELL('',(#289,#290,#291,#292,#293,#294,#295,#296,#297,#298,
#299,#300,#301));
#303=MANIFOLD_SOLID_BREP('',#302);
#304=SHAPE_DEFINITION_REPRESENTATION(#441,#305);
#305=SHAPE_REPRESENTATION('Allen screw',(#306),#436);
#306=AXIS2_PLACEMENT_3D('',#381,#325,#326);
#307=AXIS2_PLACEMENT_3D('',#382,#327,#328);
#308=AXIS2_PLACEMENT_3D('',#383,#329,#330);
#309=AXIS2_PLACEMENT_3D('',#385,#331,#332);
#310=AXIS2_PLACEMENT_3D('',#387,#333,#334);
#311=AXIS2_PLACEMENT_3D('',#388,#335,#336);
#312=AXIS2_PLACEMENT_3D('',#389,#337,#338);
#313=AXIS2_PLACEMENT_3D('',#391,#339,#340);
#314=AXIS2_PLACEMENT_3D('',#392,#341,#342);
#315=AXIS2_PLACEMENT_3D('',#394,#343,#344);
#316=AXIS2_PLACEMENT_3D('',#395,#345,#346);
#317=AXIS2_PLACEMENT_3D('',#397,#347,#348);
#318=AXIS2_PLACEMENT_3D('',#410,#355,#356);
#319=AXIS2_PLACEMENT_3D('',#416,#360,#361);
#320=AXIS2_PLACEMENT_3D('',#420,#364,#365);
#321=AXIS2_PLACEMENT_3D('',#424,#368,#369);
#322=AXIS2_PLACEMENT_3D('',#428,#372,#373);
#323=AXIS2_PLACEMENT_3D('',#432,#376,#377);
#324=AXIS2_PLACEMENT_3D('',#434,#379,#380);
#325=DIRECTION('',(0.,0.,1.));
#326=DIRECTION('',(1.,0.,0.));
#327=DIRECTION('',(1.,0.,0.));
#328=DIRECTION('',(0.,0.,-1.));
#329=DIRECTION('',(1.,0.,0.));
#330=DIRECTION('',(0.,0.,-1.));
#331=DIRECTION('',(1.,0.,0.));
#332=DIRECTION('',(0.,0.,-1.));
#333=DIRECTION('',(1.,0.,0.));
#334=DIRECTION('',(0.,0.,-1.));
#335=DIRECTION('',(1.,0.,0.));
#336=DIRECTION('',(0.,0.,-1.));
#337=DIRECTION('',(1.,0.,0.));
#338=DIRECTION('',(0.,0.,-1.));
#339=DIRECTION('',(-1.,0.,0.));
#340=DIRECTION('',(0.,0.,1.));
#341=DIRECTION('',(1.,0.,0.));
#342=DIRECTION('',(0.,0.,-1.));
#343=DIRECTION('',(1.,0.,0.));
#344=DIRECTION('',(0.,0.,-1.));
#345=DIRECTION('',(1.,0.,0.));
#346=DIRECTION('',(0.,0.,-1.));
#347=DIRECTION('',(-1.,0.,0.));
#348=DIRECTION('',(0.,0.,1.));
#349=DIRECTION('',(9.85609695351323E-32,-1.60962278436124E-15,-1.));
#350=DIRECTION('',(-5.30287619362453E-17,0.866025403784438,-0.500000000000001));
#351=DIRECTION('',(-5.30287619362454E-17,0.86602540378444,0.499999999999998));
#352=DIRECTION('',(-1.97121939070265E-31,3.21924556872248E-15,1.));
#353=DIRECTION('',(5.30287619362453E-17,-0.866025403784437,0.500000000000002));
#354=DIRECTION('',(5.30287619362454E-17,-0.86602540378444,-0.499999999999998));
#355=DIRECTION('',(0.,1.,-1.60962278436124E-15));
#356=DIRECTION('',(0.,1.60962278436124E-15,1.));
#357=DIRECTION('',(-1.,0.,0.));
#358=DIRECTION('',(9.85609695351323E-32,-1.60962278436124E-15,-1.));
#359=DIRECTION('',(-1.,0.,0.));
#360=DIRECTION('',(0.,0.499999999999998,-0.86602540378444));
#361=DIRECTION('',(0.,0.86602540378444,0.499999999999998));
#362=DIRECTION('',(-1.,0.,0.));
#363=DIRECTION('',(5.30287619362454E-17,-0.86602540378444,-0.499999999999998));
#364=DIRECTION('',(0.,-0.500000000000002,-0.866025403784437));
#365=DIRECTION('',(0.,0.866025403784437,-0.500000000000002));
#366=DIRECTION('',(-1.,0.,0.));
#367=DIRECTION('',(5.30287619362453E-17,-0.866025403784437,0.500000000000002));
#368=DIRECTION('',(0.,-1.,3.21924556872248E-15));
#369=DIRECTION('',(0.,-3.21924556872248E-15,-1.));
#370=DIRECTION('',(-1.,0.,0.));
#371=DIRECTION('',(-1.97121939070265E-31,3.21924556872248E-15,1.));
#372=DIRECTION('',(0.,-0.499999999999998,0.86602540378444));
#373=DIRECTION('',(0.,-0.86602540378444,-0.499999999999998));
#374=DIRECTION('',(-1.,0.,0.));
#375=DIRECTION('',(-5.30287619362454E-17,0.86602540378444,0.499999999999998));
#376=DIRECTION('',(0.,0.500000000000001,0.866025403784438));
#377=DIRECTION('',(0.,-0.866025403784438,0.500000000000001));
#378=DIRECTION('',(-5.30287619362453E-17,0.866025403784438,-0.500000000000001));
#379=DIRECTION('',(-1.,-6.12323399573677E-17,-1.26412507123897E-47));
#380=DIRECTION('',(6.12323399573677E-17,-1.,0.));
#381=CARTESIAN_POINT('',(0.,0.,0.));
#382=CARTESIAN_POINT('',(-1.5,0.,0.));
#383=CARTESIAN_POINT('',(23.,0.,0.));
#384=CARTESIAN_POINT('',(23.,0.,-1.5));
#385=CARTESIAN_POINT('',(9.7,0.,0.));
#386=CARTESIAN_POINT('',(9.7,0.,-1.5));
#387=CARTESIAN_POINT('',(23.,0.,0.));
#388=CARTESIAN_POINT('',(-1.5,0.,0.));
#389=CARTESIAN_POINT('',(1.7,0.,0.));
#390=CARTESIAN_POINT('',(1.7,0.,-1.5));
#391=CARTESIAN_POINT('',(1.7,0.,0.));
#392=CARTESIAN_POINT('',(0.200000000000001,0.,0.));
#393=CARTESIAN_POINT('',(0.200000000000001,0.,-3.));
#394=CARTESIAN_POINT('',(-1.5,0.,0.));
#395=CARTESIAN_POINT('',(4.33680868994202E-16,0.,0.));
#396=CARTESIAN_POINT('',(4.33680868994202E-16,0.,-3.));
#397=CARTESIAN_POINT('',(1.83697019872103E-16,0.,0.));
#398=CARTESIAN_POINT('',(1.19403062916867E-16,1.05,0.606217782649106));
#399=CARTESIAN_POINT('',(1.19403062916867E-16,1.05,0.606217782649106));
#400=CARTESIAN_POINT('',(1.19403062916867E-16,1.05,-0.606217782649108));
#401=CARTESIAN_POINT('',(1.83697019872103E-16,0.,1.21243556529821));
#402=CARTESIAN_POINT('',(1.83697019872103E-16,-1.0842021724855E-16,1.21243556529821));
#403=CARTESIAN_POINT('',(2.47990976827339E-16,-1.05,0.606217782649111));
#404=CARTESIAN_POINT('',(2.47990976827339E-16,-1.05,0.606217782649111));
#405=CARTESIAN_POINT('',(2.47990976827339E-16,-1.05,-0.606217782649103));
#406=CARTESIAN_POINT('',(2.47990976827339E-16,-1.05,-0.606217782649103));
#407=CARTESIAN_POINT('',(1.83697019872103E-16,-3.68628738645072E-15,-1.21243556529821));
#408=CARTESIAN_POINT('',(1.83697019872103E-16,-3.68628738645072E-15,-1.21243556529821));
#409=CARTESIAN_POINT('',(1.19403062916867E-16,1.05,-0.606217782649108));
#410=CARTESIAN_POINT('',(1.2,1.05,0.606217782649106));
#411=CARTESIAN_POINT('',(1.2,1.05,-0.606217782649108));
#412=CARTESIAN_POINT('',(1.2,1.05,-0.606217782649108));
#413=CARTESIAN_POINT('',(1.2,1.05,0.606217782649106));
#414=CARTESIAN_POINT('',(1.2,1.05,0.606217782649106));
#415=CARTESIAN_POINT('',(1.2,1.05,0.606217782649106));
#416=CARTESIAN_POINT('',(1.2,1.05,-0.606217782649108));
#417=CARTESIAN_POINT('',(1.2,-3.68628738645072E-15,-1.21243556529821));
#418=CARTESIAN_POINT('',(1.2,-3.68628738645072E-15,-1.21243556529821));
#419=CARTESIAN_POINT('',(1.2,1.05,-0.606217782649108));
#420=CARTESIAN_POINT('',(1.2,-3.68628738645072E-15,-1.21243556529821));
#421=CARTESIAN_POINT('',(1.2,-1.05,-0.606217782649103));
#422=CARTESIAN_POINT('',(1.2,-1.05,-0.606217782649103));
#423=CARTESIAN_POINT('',(1.2,-3.68628738645072E-15,-1.21243556529821));
#424=CARTESIAN_POINT('',(1.2,-1.05,-0.606217782649103));
#425=CARTESIAN_POINT('',(1.2,-1.05,0.606217782649111));
#426=CARTESIAN_POINT('',(1.2,-1.05,0.606217782649111));
#427=CARTESIAN_POINT('',(1.2,-1.05,-0.606217782649103));
#428=CARTESIAN_POINT('',(1.2,-1.05,0.606217782649111));
#429=CARTESIAN_POINT('',(1.2,0.,1.21243556529821));
#430=CARTESIAN_POINT('',(1.2,0.,1.21243556529821));
#431=CARTESIAN_POINT('',(1.2,-1.05,0.606217782649111));
#432=CARTESIAN_POINT('',(1.2,0.,1.21243556529821));
#433=CARTESIAN_POINT('',(1.2,0.,1.21243556529821));
#434=CARTESIAN_POINT('',(1.2,1.12481983699639E-32,2.32216008332209E-63));
#435=MECHANICAL_DESIGN_GEOMETRIC_PRESENTATION_REPRESENTATION('',(#196,#197,
#198,#199,#200,#201,#202,#203,#204,#205,#206,#207,#208),#436);
#436=(
GEOMETRIC_REPRESENTATION_CONTEXT(3)
GLOBAL_UNCERTAINTY_ASSIGNED_CONTEXT((#437))
GLOBAL_UNIT_ASSIGNED_CONTEXT((#440,#439,#438))
REPRESENTATION_CONTEXT('Allen screw','TOP_LEVEL_ASSEMBLY_PART')
);
#437=UNCERTAINTY_MEASURE_WITH_UNIT(LENGTH_MEASURE(0.005),#440,
'DISTANCE_ACCURACY_VALUE','Maximum Tolerance applied to model');
#438=(
NAMED_UNIT(*)
SI_UNIT($,.STERADIAN.)
SOLID_ANGLE_UNIT()
);
#439=(
NAMED_UNIT(*)
PLANE_ANGLE_UNIT()
SI_UNIT($,.RADIAN.)
);
#440=(
LENGTH_UNIT()
NAMED_UNIT(*)
SI_UNIT(.MILLI.,.METRE.)
);
#441=PRODUCT_DEFINITION_SHAPE('','',#442);
#442=PRODUCT_DEFINITION('','',#444,#443);
#443=PRODUCT_DEFINITION_CONTEXT('',#450,'design');
#444=PRODUCT_DEFINITION_FORMATION_WITH_SPECIFIED_SOURCE('','',#446,
 .NOT_KNOWN.);
#445=PRODUCT_RELATED_PRODUCT_CATEGORY('','',(#446));
#446=PRODUCT('Allen screw','Allen screw','Allen screw',(#448));
#447=PRODUCT_CATEGORY('','');
#448=PRODUCT_CONTEXT('',#450,'mechanical');
#449=APPLICATION_PROTOCOL_DEFINITION('international standard',
'automotive_design',2010,#450);
#450=APPLICATION_CONTEXT(
'core data for automotive mechanical design processes');
ENDSEC;
END-ISO-10303-21;
