ISO-10303-21;
HEADER;
/* Generated by software containing ST-Developer
 * from STEP Tools, Inc. (www.steptools.com) 
 */
/* OPTION: strings as raw bytes, not using required /X/ escapes */

FILE_DESCRIPTION(
/* description */ ('Unknown'),
/* implementation_level */ '2;1');

FILE_NAME(
/* name */ 'Volute flange 2',
/* time_stamp */ '2023-02-01T10:27:53-03:00',
/* author */ ('Unknown'),
/* organization */ ('Unknown'),
/* preprocessor_version */ 'ST-DEVELOPER v16.7',
/* originating_system */ 'Solid Edge',
/* authorisation */ 'Unknown');

FILE_SCHEMA (('AUTOMOTIVE_DESIGN {1 0 10303 214 3 1 1}'));
ENDSEC;

DATA;
#10=PROPERTY_DEFINITION_REPRESENTATION(#14,#12);
#11=PROPERTY_DEFINITION_REPRESENTATION(#15,#13);
#12=REPRESENTATION('',(#16),#617);
#13=REPRESENTATION('',(#17),#617);
#14=PROPERTY_DEFINITION('pmi validation property','',#622);
#15=PROPERTY_DEFINITION('pmi validation property','',#622);
#16=VALUE_REPRESENTATION_ITEM('number of annotations',COUNT_MEASURE(0.));
#17=VALUE_REPRESENTATION_ITEM('number of views',COUNT_MEASURE(0.));
#18=SHAPE_REPRESENTATION_RELATIONSHIP('','',#420,#19);
#19=ADVANCED_BREP_SHAPE_REPRESENTATION('',(#418),#617);
#20=PLANE('',#428);
#21=PLANE('',#430);
#22=PLANE('',#437);
#23=PLANE('',#438);
#24=PLANE('',#439);
#25=PLANE('',#440);
#26=PLANE('',#443);
#27=PLANE('',#444);
#28=PLANE('',#445);
#29=PLANE('',#446);
#30=LINE('',#541,#50);
#31=LINE('',#546,#51);
#32=LINE('',#550,#52);
#33=LINE('',#554,#53);
#34=LINE('',#571,#54);
#35=LINE('',#573,#55);
#36=LINE('',#575,#56);
#37=LINE('',#576,#57);
#38=LINE('',#578,#58);
#39=LINE('',#580,#59);
#40=LINE('',#583,#60);
#41=LINE('',#585,#61);
#42=LINE('',#587,#62);
#43=LINE('',#589,#63);
#44=LINE('',#591,#64);
#45=LINE('',#598,#65);
#46=LINE('',#600,#66);
#47=LINE('',#602,#67);
#48=LINE('',#604,#68);
#49=LINE('',#606,#69);
#50=VECTOR('',#459,1000.);
#51=VECTOR('',#462,1000.);
#52=VECTOR('',#465,1000.);
#53=VECTOR('',#468,1000.);
#54=VECTOR('',#487,1000.);
#55=VECTOR('',#488,1000.);
#56=VECTOR('',#489,1000.);
#57=VECTOR('',#490,1000.);
#58=VECTOR('',#491,1000.);
#59=VECTOR('',#492,1000.);
#60=VECTOR('',#497,1000.);
#61=VECTOR('',#498,1000.);
#62=VECTOR('',#499,1000.);
#63=VECTOR('',#502,1000.);
#64=VECTOR('',#505,1000.);
#65=VECTOR('',#514,1000.);
#66=VECTOR('',#515,1000.);
#67=VECTOR('',#516,1000.);
#68=VECTOR('',#519,1000.);
#69=VECTOR('',#522,1000.);
#70=ORIENTED_EDGE('',*,*,#140,.F.);
#71=ORIENTED_EDGE('',*,*,#141,.F.);
#72=ORIENTED_EDGE('',*,*,#142,.T.);
#73=ORIENTED_EDGE('',*,*,#143,.T.);
#74=ORIENTED_EDGE('',*,*,#144,.T.);
#75=ORIENTED_EDGE('',*,*,#145,.F.);
#76=ORIENTED_EDGE('',*,*,#146,.T.);
#77=ORIENTED_EDGE('',*,*,#147,.T.);
#78=ORIENTED_EDGE('',*,*,#148,.T.);
#79=ORIENTED_EDGE('',*,*,#149,.F.);
#80=ORIENTED_EDGE('',*,*,#140,.T.);
#81=ORIENTED_EDGE('',*,*,#150,.T.);
#82=ORIENTED_EDGE('',*,*,#151,.T.);
#83=ORIENTED_EDGE('',*,*,#152,.T.);
#84=ORIENTED_EDGE('',*,*,#153,.T.);
#85=ORIENTED_EDGE('',*,*,#154,.T.);
#86=ORIENTED_EDGE('',*,*,#148,.F.);
#87=ORIENTED_EDGE('',*,*,#155,.T.);
#88=ORIENTED_EDGE('',*,*,#156,.T.);
#89=ORIENTED_EDGE('',*,*,#157,.T.);
#90=ORIENTED_EDGE('',*,*,#144,.F.);
#91=ORIENTED_EDGE('',*,*,#158,.T.);
#92=ORIENTED_EDGE('',*,*,#159,.T.);
#93=ORIENTED_EDGE('',*,*,#160,.T.);
#94=ORIENTED_EDGE('',*,*,#149,.T.);
#95=ORIENTED_EDGE('',*,*,#154,.F.);
#96=ORIENTED_EDGE('',*,*,#156,.F.);
#97=ORIENTED_EDGE('',*,*,#161,.F.);
#98=ORIENTED_EDGE('',*,*,#162,.T.);
#99=ORIENTED_EDGE('',*,*,#163,.T.);
#100=ORIENTED_EDGE('',*,*,#157,.F.);
#101=ORIENTED_EDGE('',*,*,#163,.F.);
#102=ORIENTED_EDGE('',*,*,#164,.T.);
#103=ORIENTED_EDGE('',*,*,#145,.T.);
#104=ORIENTED_EDGE('',*,*,#155,.F.);
#105=ORIENTED_EDGE('',*,*,#147,.F.);
#106=ORIENTED_EDGE('',*,*,#165,.T.);
#107=ORIENTED_EDGE('',*,*,#161,.T.);
#108=ORIENTED_EDGE('',*,*,#166,.F.);
#109=ORIENTED_EDGE('',*,*,#167,.F.);
#110=ORIENTED_EDGE('',*,*,#162,.F.);
#111=ORIENTED_EDGE('',*,*,#165,.F.);
#112=ORIENTED_EDGE('',*,*,#146,.F.);
#113=ORIENTED_EDGE('',*,*,#164,.F.);
#114=ORIENTED_EDGE('',*,*,#159,.F.);
#115=ORIENTED_EDGE('',*,*,#168,.F.);
#116=ORIENTED_EDGE('',*,*,#169,.T.);
#117=ORIENTED_EDGE('',*,*,#170,.T.);
#118=ORIENTED_EDGE('',*,*,#160,.F.);
#119=ORIENTED_EDGE('',*,*,#170,.F.);
#120=ORIENTED_EDGE('',*,*,#171,.T.);
#121=ORIENTED_EDGE('',*,*,#141,.T.);
#122=ORIENTED_EDGE('',*,*,#158,.F.);
#123=ORIENTED_EDGE('',*,*,#143,.F.);
#124=ORIENTED_EDGE('',*,*,#172,.T.);
#125=ORIENTED_EDGE('',*,*,#168,.T.);
#126=ORIENTED_EDGE('',*,*,#173,.F.);
#127=ORIENTED_EDGE('',*,*,#174,.F.);
#128=ORIENTED_EDGE('',*,*,#169,.F.);
#129=ORIENTED_EDGE('',*,*,#172,.F.);
#130=ORIENTED_EDGE('',*,*,#142,.F.);
#131=ORIENTED_EDGE('',*,*,#171,.F.);
#132=ORIENTED_EDGE('',*,*,#174,.T.);
#133=ORIENTED_EDGE('',*,*,#153,.F.);
#134=ORIENTED_EDGE('',*,*,#173,.T.);
#135=ORIENTED_EDGE('',*,*,#152,.F.);
#136=ORIENTED_EDGE('',*,*,#167,.T.);
#137=ORIENTED_EDGE('',*,*,#151,.F.);
#138=ORIENTED_EDGE('',*,*,#166,.T.);
#139=ORIENTED_EDGE('',*,*,#150,.F.);
#140=EDGE_CURVE('',#175,#175,#202,.T.);
#141=EDGE_CURVE('',#176,#177,#30,.T.);
#142=EDGE_CURVE('',#176,#178,#203,.T.);
#143=EDGE_CURVE('',#178,#179,#31,.T.);
#144=EDGE_CURVE('',#179,#180,#204,.T.);
#145=EDGE_CURVE('',#181,#180,#32,.T.);
#146=EDGE_CURVE('',#181,#182,#205,.T.);
#147=EDGE_CURVE('',#182,#183,#33,.T.);
#148=EDGE_CURVE('',#183,#177,#206,.T.);
#149=EDGE_CURVE('',#184,#184,#207,.T.);
#150=EDGE_CURVE('',#185,#185,#208,.T.);
#151=EDGE_CURVE('',#186,#186,#209,.T.);
#152=EDGE_CURVE('',#187,#187,#210,.T.);
#153=EDGE_CURVE('',#188,#188,#211,.T.);
#154=EDGE_CURVE('',#189,#189,#212,.T.);
#155=EDGE_CURVE('',#183,#190,#34,.T.);
#156=EDGE_CURVE('',#190,#191,#35,.T.);
#157=EDGE_CURVE('',#191,#180,#36,.T.);
#158=EDGE_CURVE('',#179,#192,#37,.T.);
#159=EDGE_CURVE('',#192,#193,#38,.T.);
#160=EDGE_CURVE('',#193,#177,#39,.T.);
#161=EDGE_CURVE('',#194,#190,#40,.T.);
#162=EDGE_CURVE('',#194,#195,#41,.T.);
#163=EDGE_CURVE('',#195,#191,#42,.T.);
#164=EDGE_CURVE('',#195,#181,#43,.T.);
#165=EDGE_CURVE('',#182,#194,#44,.T.);
#166=EDGE_CURVE('',#196,#196,#213,.T.);
#167=EDGE_CURVE('',#197,#197,#214,.T.);
#168=EDGE_CURVE('',#198,#192,#45,.T.);
#169=EDGE_CURVE('',#198,#199,#46,.T.);
#170=EDGE_CURVE('',#199,#193,#47,.T.);
#171=EDGE_CURVE('',#199,#176,#48,.T.);
#172=EDGE_CURVE('',#178,#198,#49,.T.);
#173=EDGE_CURVE('',#200,#200,#215,.T.);
#174=EDGE_CURVE('',#201,#201,#216,.T.);
#175=VERTEX_POINT('',#540);
#176=VERTEX_POINT('',#542);
#177=VERTEX_POINT('',#543);
#178=VERTEX_POINT('',#545);
#179=VERTEX_POINT('',#547);
#180=VERTEX_POINT('',#549);
#181=VERTEX_POINT('',#551);
#182=VERTEX_POINT('',#553);
#183=VERTEX_POINT('',#555);
#184=VERTEX_POINT('',#559);
#185=VERTEX_POINT('',#562);
#186=VERTEX_POINT('',#564);
#187=VERTEX_POINT('',#566);
#188=VERTEX_POINT('',#568);
#189=VERTEX_POINT('',#570);
#190=VERTEX_POINT('',#572);
#191=VERTEX_POINT('',#574);
#192=VERTEX_POINT('',#577);
#193=VERTEX_POINT('',#579);
#194=VERTEX_POINT('',#584);
#195=VERTEX_POINT('',#586);
#196=VERTEX_POINT('',#594);
#197=VERTEX_POINT('',#596);
#198=VERTEX_POINT('',#599);
#199=VERTEX_POINT('',#601);
#200=VERTEX_POINT('',#609);
#201=VERTEX_POINT('',#611);
#202=CIRCLE('',#423,18.2);
#203=CIRCLE('',#424,18.2);
#204=CIRCLE('',#425,18.2);
#205=CIRCLE('',#426,18.2);
#206=CIRCLE('',#427,18.2);
#207=CIRCLE('',#429,15.2527);
#208=CIRCLE('',#431,2.15);
#209=CIRCLE('',#432,2.15);
#210=CIRCLE('',#433,2.15);
#211=CIRCLE('',#434,2.15);
#212=CIRCLE('',#435,15.2527);
#213=CIRCLE('',#441,2.15);
#214=CIRCLE('',#442,2.15);
#215=CIRCLE('',#447,2.15);
#216=CIRCLE('',#448,2.15);
#217=EDGE_LOOP('',(#70));
#218=EDGE_LOOP('',(#71,#72,#73,#74,#75,#76,#77,#78));
#219=EDGE_LOOP('',(#79));
#220=EDGE_LOOP('',(#80));
#221=EDGE_LOOP('',(#81));
#222=EDGE_LOOP('',(#82));
#223=EDGE_LOOP('',(#83));
#224=EDGE_LOOP('',(#84));
#225=EDGE_LOOP('',(#85));
#226=EDGE_LOOP('',(#86,#87,#88,#89,#90,#91,#92,#93));
#227=EDGE_LOOP('',(#94));
#228=EDGE_LOOP('',(#95));
#229=EDGE_LOOP('',(#96,#97,#98,#99));
#230=EDGE_LOOP('',(#100,#101,#102,#103));
#231=EDGE_LOOP('',(#104,#105,#106,#107));
#232=EDGE_LOOP('',(#108));
#233=EDGE_LOOP('',(#109));
#234=EDGE_LOOP('',(#110,#111,#112,#113));
#235=EDGE_LOOP('',(#114,#115,#116,#117));
#236=EDGE_LOOP('',(#118,#119,#120,#121));
#237=EDGE_LOOP('',(#122,#123,#124,#125));
#238=EDGE_LOOP('',(#126));
#239=EDGE_LOOP('',(#127));
#240=EDGE_LOOP('',(#128,#129,#130,#131));
#241=EDGE_LOOP('',(#132));
#242=EDGE_LOOP('',(#133));
#243=EDGE_LOOP('',(#134));
#244=EDGE_LOOP('',(#135));
#245=EDGE_LOOP('',(#136));
#246=EDGE_LOOP('',(#137));
#247=EDGE_LOOP('',(#138));
#248=EDGE_LOOP('',(#139));
#249=FACE_BOUND('',#217,.T.);
#250=FACE_BOUND('',#218,.T.);
#251=FACE_BOUND('',#219,.T.);
#252=FACE_BOUND('',#220,.T.);
#253=FACE_BOUND('',#221,.T.);
#254=FACE_BOUND('',#222,.T.);
#255=FACE_BOUND('',#223,.T.);
#256=FACE_BOUND('',#224,.T.);
#257=FACE_BOUND('',#225,.T.);
#258=FACE_BOUND('',#226,.T.);
#259=FACE_BOUND('',#227,.T.);
#260=FACE_BOUND('',#228,.T.);
#261=FACE_BOUND('',#229,.T.);
#262=FACE_BOUND('',#230,.T.);
#263=FACE_BOUND('',#231,.T.);
#264=FACE_BOUND('',#232,.T.);
#265=FACE_BOUND('',#233,.T.);
#266=FACE_BOUND('',#234,.T.);
#267=FACE_BOUND('',#235,.T.);
#268=FACE_BOUND('',#236,.T.);
#269=FACE_BOUND('',#237,.T.);
#270=FACE_BOUND('',#238,.T.);
#271=FACE_BOUND('',#239,.T.);
#272=FACE_BOUND('',#240,.T.);
#273=FACE_BOUND('',#241,.T.);
#274=FACE_BOUND('',#242,.T.);
#275=FACE_BOUND('',#243,.T.);
#276=FACE_BOUND('',#244,.T.);
#277=FACE_BOUND('',#245,.T.);
#278=FACE_BOUND('',#246,.T.);
#279=FACE_BOUND('',#247,.T.);
#280=FACE_BOUND('',#248,.T.);
#281=CYLINDRICAL_SURFACE('',#422,18.2);
#282=CYLINDRICAL_SURFACE('',#436,15.2527);
#283=CYLINDRICAL_SURFACE('',#449,2.15);
#284=CYLINDRICAL_SURFACE('',#450,2.15);
#285=CYLINDRICAL_SURFACE('',#451,2.15);
#286=CYLINDRICAL_SURFACE('',#452,2.15);
#287=STYLED_ITEM('',(#303),#401);
#288=STYLED_ITEM('',(#304),#402);
#289=STYLED_ITEM('',(#305),#403);
#290=STYLED_ITEM('',(#306),#404);
#291=STYLED_ITEM('',(#307),#405);
#292=STYLED_ITEM('',(#308),#406);
#293=STYLED_ITEM('',(#309),#407);
#294=STYLED_ITEM('',(#310),#408);
#295=STYLED_ITEM('',(#311),#409);
#296=STYLED_ITEM('',(#312),#410);
#297=STYLED_ITEM('',(#313),#411);
#298=STYLED_ITEM('',(#314),#412);
#299=STYLED_ITEM('',(#315),#413);
#300=STYLED_ITEM('',(#316),#414);
#301=STYLED_ITEM('',(#317),#415);
#302=STYLED_ITEM('',(#318),#416);
#303=PRESENTATION_STYLE_ASSIGNMENT((#319));
#304=PRESENTATION_STYLE_ASSIGNMENT((#320));
#305=PRESENTATION_STYLE_ASSIGNMENT((#321));
#306=PRESENTATION_STYLE_ASSIGNMENT((#322));
#307=PRESENTATION_STYLE_ASSIGNMENT((#323));
#308=PRESENTATION_STYLE_ASSIGNMENT((#324));
#309=PRESENTATION_STYLE_ASSIGNMENT((#325));
#310=PRESENTATION_STYLE_ASSIGNMENT((#326));
#311=PRESENTATION_STYLE_ASSIGNMENT((#327));
#312=PRESENTATION_STYLE_ASSIGNMENT((#328));
#313=PRESENTATION_STYLE_ASSIGNMENT((#329));
#314=PRESENTATION_STYLE_ASSIGNMENT((#330));
#315=PRESENTATION_STYLE_ASSIGNMENT((#331));
#316=PRESENTATION_STYLE_ASSIGNMENT((#332));
#317=PRESENTATION_STYLE_ASSIGNMENT((#333));
#318=PRESENTATION_STYLE_ASSIGNMENT((#334));
#319=SURFACE_STYLE_USAGE(.BOTH.,#335);
#320=SURFACE_STYLE_USAGE(.BOTH.,#336);
#321=SURFACE_STYLE_USAGE(.BOTH.,#337);
#322=SURFACE_STYLE_USAGE(.BOTH.,#338);
#323=SURFACE_STYLE_USAGE(.BOTH.,#339);
#324=SURFACE_STYLE_USAGE(.BOTH.,#340);
#325=SURFACE_STYLE_USAGE(.BOTH.,#341);
#326=SURFACE_STYLE_USAGE(.BOTH.,#342);
#327=SURFACE_STYLE_USAGE(.BOTH.,#343);
#328=SURFACE_STYLE_USAGE(.BOTH.,#344);
#329=SURFACE_STYLE_USAGE(.BOTH.,#345);
#330=SURFACE_STYLE_USAGE(.BOTH.,#346);
#331=SURFACE_STYLE_USAGE(.BOTH.,#347);
#332=SURFACE_STYLE_USAGE(.BOTH.,#348);
#333=SURFACE_STYLE_USAGE(.BOTH.,#349);
#334=SURFACE_STYLE_USAGE(.BOTH.,#350);
#335=SURFACE_SIDE_STYLE('',(#351));
#336=SURFACE_SIDE_STYLE('',(#352));
#337=SURFACE_SIDE_STYLE('',(#353));
#338=SURFACE_SIDE_STYLE('',(#354));
#339=SURFACE_SIDE_STYLE('',(#355));
#340=SURFACE_SIDE_STYLE('',(#356));
#341=SURFACE_SIDE_STYLE('',(#357));
#342=SURFACE_SIDE_STYLE('',(#358));
#343=SURFACE_SIDE_STYLE('',(#359));
#344=SURFACE_SIDE_STYLE('',(#360));
#345=SURFACE_SIDE_STYLE('',(#361));
#346=SURFACE_SIDE_STYLE('',(#362));
#347=SURFACE_SIDE_STYLE('',(#363));
#348=SURFACE_SIDE_STYLE('',(#364));
#349=SURFACE_SIDE_STYLE('',(#365));
#350=SURFACE_SIDE_STYLE('',(#366));
#351=SURFACE_STYLE_FILL_AREA(#367);
#352=SURFACE_STYLE_FILL_AREA(#368);
#353=SURFACE_STYLE_FILL_AREA(#369);
#354=SURFACE_STYLE_FILL_AREA(#370);
#355=SURFACE_STYLE_FILL_AREA(#371);
#356=SURFACE_STYLE_FILL_AREA(#372);
#357=SURFACE_STYLE_FILL_AREA(#373);
#358=SURFACE_STYLE_FILL_AREA(#374);
#359=SURFACE_STYLE_FILL_AREA(#375);
#360=SURFACE_STYLE_FILL_AREA(#376);
#361=SURFACE_STYLE_FILL_AREA(#377);
#362=SURFACE_STYLE_FILL_AREA(#378);
#363=SURFACE_STYLE_FILL_AREA(#379);
#364=SURFACE_STYLE_FILL_AREA(#380);
#365=SURFACE_STYLE_FILL_AREA(#381);
#366=SURFACE_STYLE_FILL_AREA(#382);
#367=FILL_AREA_STYLE('',(#383));
#368=FILL_AREA_STYLE('',(#384));
#369=FILL_AREA_STYLE('',(#385));
#370=FILL_AREA_STYLE('',(#386));
#371=FILL_AREA_STYLE('',(#387));
#372=FILL_AREA_STYLE('',(#388));
#373=FILL_AREA_STYLE('',(#389));
#374=FILL_AREA_STYLE('',(#390));
#375=FILL_AREA_STYLE('',(#391));
#376=FILL_AREA_STYLE('',(#392));
#377=FILL_AREA_STYLE('',(#393));
#378=FILL_AREA_STYLE('',(#394));
#379=FILL_AREA_STYLE('',(#395));
#380=FILL_AREA_STYLE('',(#396));
#381=FILL_AREA_STYLE('',(#397));
#382=FILL_AREA_STYLE('',(#398));
#383=FILL_AREA_STYLE_COLOUR('',#399);
#384=FILL_AREA_STYLE_COLOUR('',#399);
#385=FILL_AREA_STYLE_COLOUR('',#399);
#386=FILL_AREA_STYLE_COLOUR('',#400);
#387=FILL_AREA_STYLE_COLOUR('',#399);
#388=FILL_AREA_STYLE_COLOUR('',#399);
#389=FILL_AREA_STYLE_COLOUR('',#399);
#390=FILL_AREA_STYLE_COLOUR('',#399);
#391=FILL_AREA_STYLE_COLOUR('',#399);
#392=FILL_AREA_STYLE_COLOUR('',#399);
#393=FILL_AREA_STYLE_COLOUR('',#399);
#394=FILL_AREA_STYLE_COLOUR('',#399);
#395=FILL_AREA_STYLE_COLOUR('',#399);
#396=FILL_AREA_STYLE_COLOUR('',#399);
#397=FILL_AREA_STYLE_COLOUR('',#399);
#398=FILL_AREA_STYLE_COLOUR('',#399);
#399=COLOUR_RGB('',0.819999992847443,0.819999992847443,0.819999992847443);
#400=COLOUR_RGB('',0.1875,0.75,0.581249892711639);
#401=ADVANCED_FACE('',(#249,#250),#281,.T.);
#402=ADVANCED_FACE('',(#251,#252),#20,.T.);
#403=ADVANCED_FACE('',(#253,#254,#255,#256,#257,#258),#21,.F.);
#404=ADVANCED_FACE('',(#259,#260),#282,.F.);
#405=ADVANCED_FACE('',(#261),#22,.T.);
#406=ADVANCED_FACE('',(#262),#23,.T.);
#407=ADVANCED_FACE('',(#263),#24,.T.);
#408=ADVANCED_FACE('',(#264,#265,#266),#25,.T.);
#409=ADVANCED_FACE('',(#267),#26,.T.);
#410=ADVANCED_FACE('',(#268),#27,.T.);
#411=ADVANCED_FACE('',(#269),#28,.T.);
#412=ADVANCED_FACE('',(#270,#271,#272),#29,.T.);
#413=ADVANCED_FACE('',(#273,#274),#283,.F.);
#414=ADVANCED_FACE('',(#275,#276),#284,.F.);
#415=ADVANCED_FACE('',(#277,#278),#285,.F.);
#416=ADVANCED_FACE('',(#279,#280),#286,.F.);
#417=CLOSED_SHELL('',(#401,#402,#403,#404,#405,#406,#407,#408,#409,#410,
#411,#412,#413,#414,#415,#416));
#418=MANIFOLD_SOLID_BREP('',#417);
#419=SHAPE_DEFINITION_REPRESENTATION(#622,#420);
#420=SHAPE_REPRESENTATION('Volute flange 2',(#421),#617);
#421=AXIS2_PLACEMENT_3D('',#537,#453,#454);
#422=AXIS2_PLACEMENT_3D('',#538,#455,#456);
#423=AXIS2_PLACEMENT_3D('',#539,#457,#458);
#424=AXIS2_PLACEMENT_3D('',#544,#460,#461);
#425=AXIS2_PLACEMENT_3D('',#548,#463,#464);
#426=AXIS2_PLACEMENT_3D('',#552,#466,#467);
#427=AXIS2_PLACEMENT_3D('',#556,#469,#470);
#428=AXIS2_PLACEMENT_3D('',#557,#471,#472);
#429=AXIS2_PLACEMENT_3D('',#558,#473,#474);
#430=AXIS2_PLACEMENT_3D('',#560,#475,#476);
#431=AXIS2_PLACEMENT_3D('',#561,#477,#478);
#432=AXIS2_PLACEMENT_3D('',#563,#479,#480);
#433=AXIS2_PLACEMENT_3D('',#565,#481,#482);
#434=AXIS2_PLACEMENT_3D('',#567,#483,#484);
#435=AXIS2_PLACEMENT_3D('',#569,#485,#486);
#436=AXIS2_PLACEMENT_3D('',#581,#493,#494);
#437=AXIS2_PLACEMENT_3D('',#582,#495,#496);
#438=AXIS2_PLACEMENT_3D('',#588,#500,#501);
#439=AXIS2_PLACEMENT_3D('',#590,#503,#504);
#440=AXIS2_PLACEMENT_3D('',#592,#506,#507);
#441=AXIS2_PLACEMENT_3D('',#593,#508,#509);
#442=AXIS2_PLACEMENT_3D('',#595,#510,#511);
#443=AXIS2_PLACEMENT_3D('',#597,#512,#513);
#444=AXIS2_PLACEMENT_3D('',#603,#517,#518);
#445=AXIS2_PLACEMENT_3D('',#605,#520,#521);
#446=AXIS2_PLACEMENT_3D('',#607,#523,#524);
#447=AXIS2_PLACEMENT_3D('',#608,#525,#526);
#448=AXIS2_PLACEMENT_3D('',#610,#527,#528);
#449=AXIS2_PLACEMENT_3D('',#612,#529,#530);
#450=AXIS2_PLACEMENT_3D('',#613,#531,#532);
#451=AXIS2_PLACEMENT_3D('',#614,#533,#534);
#452=AXIS2_PLACEMENT_3D('',#615,#535,#536);
#453=DIRECTION('',(0.,0.,1.));
#454=DIRECTION('',(1.,0.,0.));
#455=DIRECTION('',(0.,1.,0.));
#456=DIRECTION('',(0.,0.,1.));
#457=DIRECTION('',(0.,-1.,0.));
#458=DIRECTION('',(1.,0.,0.));
#459=DIRECTION('',(0.,1.,0.));
#460=DIRECTION('',(1.22464679914735E-16,-1.,0.));
#461=DIRECTION('',(-1.,-1.22464679914735E-16,0.));
#462=DIRECTION('',(0.,1.,0.));
#463=DIRECTION('',(0.,-1.,0.));
#464=DIRECTION('',(1.,0.,0.));
#465=DIRECTION('',(0.,1.,0.));
#466=DIRECTION('',(1.22464679914735E-16,-1.,0.));
#467=DIRECTION('',(-1.,-1.22464679914735E-16,0.));
#468=DIRECTION('',(0.,1.,0.));
#469=DIRECTION('',(0.,-1.,0.));
#470=DIRECTION('',(1.,0.,0.));
#471=DIRECTION('',(0.,-1.,0.));
#472=DIRECTION('',(0.,0.,-1.));
#473=DIRECTION('',(0.,-1.,0.));
#474=DIRECTION('',(0.,0.,-1.));
#475=DIRECTION('',(0.,-1.,0.));
#476=DIRECTION('',(0.,0.,-1.));
#477=DIRECTION('',(0.,-1.,0.));
#478=DIRECTION('',(0.,0.,1.));
#479=DIRECTION('',(0.,-1.,0.));
#480=DIRECTION('',(0.,0.,1.));
#481=DIRECTION('',(0.,-1.,0.));
#482=DIRECTION('',(0.,0.,1.));
#483=DIRECTION('',(0.,-1.,0.));
#484=DIRECTION('',(0.,0.,1.));
#485=DIRECTION('',(0.,-1.,0.));
#486=DIRECTION('',(0.,0.,1.));
#487=DIRECTION('',(0.,0.,-1.));
#488=DIRECTION('',(-1.,-1.22464679914735E-16,0.));
#489=DIRECTION('',(0.,0.,1.));
#490=DIRECTION('',(0.,0.,1.));
#491=DIRECTION('',(1.,1.22464679914735E-16,0.));
#492=DIRECTION('',(0.,0.,-1.));
#493=DIRECTION('',(0.,-1.,0.));
#494=DIRECTION('',(0.,0.,1.));
#495=DIRECTION('',(0.,0.,-1.));
#496=DIRECTION('',(-1.,0.,0.));
#497=DIRECTION('',(0.,1.,0.));
#498=DIRECTION('',(-1.,-1.22464679914735E-16,0.));
#499=DIRECTION('',(0.,1.,0.));
#500=DIRECTION('',(-1.,0.,0.));
#501=DIRECTION('',(0.,0.,1.));
#502=DIRECTION('',(0.,0.,1.));
#503=DIRECTION('',(1.,0.,0.));
#504=DIRECTION('',(0.,0.,-1.));
#505=DIRECTION('',(0.,0.,-1.));
#506=DIRECTION('',(1.22464679914735E-16,-1.,0.));
#507=DIRECTION('',(1.,1.22464679914735E-16,0.));
#508=DIRECTION('',(1.22464679914735E-16,-1.,0.));
#509=DIRECTION('',(1.,1.22464679914735E-16,0.));
#510=DIRECTION('',(1.22464679914735E-16,-1.,0.));
#511=DIRECTION('',(1.,1.22464679914735E-16,0.));
#512=DIRECTION('',(0.,0.,1.));
#513=DIRECTION('',(1.,0.,0.));
#514=DIRECTION('',(0.,1.,0.));
#515=DIRECTION('',(1.,1.22464679914735E-16,0.));
#516=DIRECTION('',(0.,1.,0.));
#517=DIRECTION('',(1.,0.,0.));
#518=DIRECTION('',(0.,0.,-1.));
#519=DIRECTION('',(0.,0.,-1.));
#520=DIRECTION('',(-1.,0.,0.));
#521=DIRECTION('',(0.,0.,1.));
#522=DIRECTION('',(0.,0.,1.));
#523=DIRECTION('',(1.22464679914735E-16,-1.,0.));
#524=DIRECTION('',(1.,1.22464679914735E-16,0.));
#525=DIRECTION('',(1.22464679914735E-16,-1.,0.));
#526=DIRECTION('',(1.,1.22464679914735E-16,0.));
#527=DIRECTION('',(1.22464679914735E-16,-1.,0.));
#528=DIRECTION('',(1.,1.22464679914735E-16,0.));
#529=DIRECTION('',(0.,-1.,0.));
#530=DIRECTION('',(0.,0.,1.));
#531=DIRECTION('',(0.,-1.,0.));
#532=DIRECTION('',(0.,0.,1.));
#533=DIRECTION('',(0.,-1.,0.));
#534=DIRECTION('',(0.,0.,1.));
#535=DIRECTION('',(0.,-1.,0.));
#536=DIRECTION('',(0.,0.,1.));
#537=CARTESIAN_POINT('',(0.,0.,0.));
#538=CARTESIAN_POINT('',(0.,-30.,0.));
#539=CARTESIAN_POINT('',(0.,-30.,0.));
#540=CARTESIAN_POINT('',(18.2,-30.,0.));
#541=CARTESIAN_POINT('',(12.5,-8.,13.2283785854503));
#542=CARTESIAN_POINT('',(12.5,-8.,13.2283785854503));
#543=CARTESIAN_POINT('',(12.5,1.53080849893419E-15,13.2283785854503));
#544=CARTESIAN_POINT('',(0.,-8.,0.));
#545=CARTESIAN_POINT('',(-12.5,-8.,13.2283785854503));
#546=CARTESIAN_POINT('',(-12.5,-8.,13.2283785854503));
#547=CARTESIAN_POINT('',(-12.5,-1.53080849893419E-15,13.2283785854503));
#548=CARTESIAN_POINT('',(0.,0.,0.));
#549=CARTESIAN_POINT('',(-12.5,-1.53080849893419E-15,-13.2283785854503));
#550=CARTESIAN_POINT('',(-12.5,-8.,-13.2283785854503));
#551=CARTESIAN_POINT('',(-12.5,-8.,-13.2283785854503));
#552=CARTESIAN_POINT('',(0.,-8.,0.));
#553=CARTESIAN_POINT('',(12.5,-8.,-13.2283785854503));
#554=CARTESIAN_POINT('',(12.5,-8.,-13.2283785854503));
#555=CARTESIAN_POINT('',(12.5,1.53080849893419E-15,-13.2283785854503));
#556=CARTESIAN_POINT('',(0.,0.,0.));
#557=CARTESIAN_POINT('',(0.,-30.,0.));
#558=CARTESIAN_POINT('',(0.,-30.,0.));
#559=CARTESIAN_POINT('',(0.,-30.,-15.2527));
#560=CARTESIAN_POINT('',(0.,0.,0.));
#561=CARTESIAN_POINT('',(-8.5,-1.04094977927525E-15,-23.5));
#562=CARTESIAN_POINT('',(-8.5,-1.04094977927525E-15,-21.35));
#563=CARTESIAN_POINT('',(8.5,1.04094977927525E-15,-23.5));
#564=CARTESIAN_POINT('',(8.5,1.04094977927525E-15,-21.35));
#565=CARTESIAN_POINT('',(-8.5,-1.04094977927525E-15,23.5));
#566=CARTESIAN_POINT('',(-8.5,-1.04094977927525E-15,25.65));
#567=CARTESIAN_POINT('',(8.5,1.04094977927525E-15,23.5));
#568=CARTESIAN_POINT('',(8.5,1.04094977927525E-15,25.65));
#569=CARTESIAN_POINT('',(0.,0.,0.));
#570=CARTESIAN_POINT('',(0.,0.,15.2527));
#571=CARTESIAN_POINT('',(12.5,1.53080849893419E-15,-13.2283785854503));
#572=CARTESIAN_POINT('',(12.5,1.53080849893419E-15,-27.5));
#573=CARTESIAN_POINT('',(12.5,1.53080849893419E-15,-27.5));
#574=CARTESIAN_POINT('',(-12.5,-1.53080849893419E-15,-27.5));
#575=CARTESIAN_POINT('',(-12.5,-1.53080849893419E-15,-27.5));
#576=CARTESIAN_POINT('',(-12.5,-1.53080849893419E-15,13.2283785854503));
#577=CARTESIAN_POINT('',(-12.5,-1.53080849893419E-15,27.5));
#578=CARTESIAN_POINT('',(-12.5,-1.53080849893419E-15,27.5));
#579=CARTESIAN_POINT('',(12.5,1.53080849893419E-15,27.5));
#580=CARTESIAN_POINT('',(12.5,1.53080849893419E-15,27.5));
#581=CARTESIAN_POINT('',(0.,0.,0.));
#582=CARTESIAN_POINT('',(12.5,-8.,-27.5));
#583=CARTESIAN_POINT('',(12.5,-8.,-27.5));
#584=CARTESIAN_POINT('',(12.5,-8.,-27.5));
#585=CARTESIAN_POINT('',(12.5,-8.,-27.5));
#586=CARTESIAN_POINT('',(-12.5,-8.,-27.5));
#587=CARTESIAN_POINT('',(-12.5,-8.,-27.5));
#588=CARTESIAN_POINT('',(-12.5,-8.,-27.5));
#589=CARTESIAN_POINT('',(-12.5,-8.,-27.5));
#590=CARTESIAN_POINT('',(12.5,-8.,-13.2283785854503));
#591=CARTESIAN_POINT('',(12.5,-8.,-13.2283785854503));
#592=CARTESIAN_POINT('',(0.,-8.,0.));
#593=CARTESIAN_POINT('',(-8.5,-8.,-23.5));
#594=CARTESIAN_POINT('',(-6.35,-8.,-23.5));
#595=CARTESIAN_POINT('',(8.5,-8.,-23.5));
#596=CARTESIAN_POINT('',(10.65,-8.,-23.5));
#597=CARTESIAN_POINT('',(-12.5,-8.,27.5));
#598=CARTESIAN_POINT('',(-12.5,-8.,27.5));
#599=CARTESIAN_POINT('',(-12.5,-8.,27.5));
#600=CARTESIAN_POINT('',(-12.5,-8.,27.5));
#601=CARTESIAN_POINT('',(12.5,-8.,27.5));
#602=CARTESIAN_POINT('',(12.5,-8.,27.5));
#603=CARTESIAN_POINT('',(12.5,-8.,27.5));
#604=CARTESIAN_POINT('',(12.5,-8.,27.5));
#605=CARTESIAN_POINT('',(-12.5,-8.,13.2283785854503));
#606=CARTESIAN_POINT('',(-12.5,-8.,13.2283785854503));
#607=CARTESIAN_POINT('',(0.,-8.,0.));
#608=CARTESIAN_POINT('',(-8.5,-8.,23.5));
#609=CARTESIAN_POINT('',(-6.35,-8.,23.5));
#610=CARTESIAN_POINT('',(8.5,-8.,23.5));
#611=CARTESIAN_POINT('',(10.65,-8.,23.5));
#612=CARTESIAN_POINT('',(8.5,1.04094977927525E-15,23.5));
#613=CARTESIAN_POINT('',(-8.5,-1.04094977927525E-15,23.5));
#614=CARTESIAN_POINT('',(8.5,1.04094977927525E-15,-23.5));
#615=CARTESIAN_POINT('',(-8.5,-1.04094977927525E-15,-23.5));
#616=MECHANICAL_DESIGN_GEOMETRIC_PRESENTATION_REPRESENTATION('',(#287,#288,
#289,#290,#291,#292,#293,#294,#295,#296,#297,#298,#299,#300,#301,#302),
#617);
#617=(
GEOMETRIC_REPRESENTATION_CONTEXT(3)
GLOBAL_UNCERTAINTY_ASSIGNED_CONTEXT((#618))
GLOBAL_UNIT_ASSIGNED_CONTEXT((#621,#620,#619))
REPRESENTATION_CONTEXT('Volute flange 2','TOP_LEVEL_ASSEMBLY_PART')
);
#618=UNCERTAINTY_MEASURE_WITH_UNIT(LENGTH_MEASURE(0.005),#621,
'DISTANCE_ACCURACY_VALUE','Maximum Tolerance applied to model');
#619=(
NAMED_UNIT(*)
SI_UNIT($,.STERADIAN.)
SOLID_ANGLE_UNIT()
);
#620=(
NAMED_UNIT(*)
PLANE_ANGLE_UNIT()
SI_UNIT($,.RADIAN.)
);
#621=(
LENGTH_UNIT()
NAMED_UNIT(*)
SI_UNIT(.MILLI.,.METRE.)
);
#622=PRODUCT_DEFINITION_SHAPE('','',#623);
#623=PRODUCT_DEFINITION('','',#625,#624);
#624=PRODUCT_DEFINITION_CONTEXT('',#631,'design');
#625=PRODUCT_DEFINITION_FORMATION_WITH_SPECIFIED_SOURCE('','',#627,
 .NOT_KNOWN.);
#626=PRODUCT_RELATED_PRODUCT_CATEGORY('','',(#627));
#627=PRODUCT('Volute flange 2','Volute flange 2','Volute flange 2',(#629));
#628=PRODUCT_CATEGORY('','');
#629=PRODUCT_CONTEXT('',#631,'mechanical');
#630=APPLICATION_PROTOCOL_DEFINITION('international standard',
'automotive_design',2010,#631);
#631=APPLICATION_CONTEXT(
'core data for automotive mechanical design processes');
ENDSEC;
END-ISO-10303-21;
